…
ames_glm
```

```{r}
glm_estimates <-
  prep(ames_glm) %>%
  tidy(number = 2)

glm_estimates
#> # A tibble: 29 × 4
#>   level              value terms        id
#>   <chr>              <dbl> <chr>        <chr>
#> 1 North_Ames          5.15 Neighborhood lencode_glm_ZsXdy
#> 2 College_Creek       5.29 Neighborhood lencode_glm_ZsXdy
#> 3 Old_Town            5.07 Neighborhood lencode_glm_ZsXdy
#> 4 Edwards             5.09 Neighborhood lencode_glm_ZsXdy
#> 5 Somerset            5.35 Neighborhood lencode_glm_ZsXdy
#> 6 Northridge_Heights  5.49 Neighborhood lencode_glm_ZsXdy
#> # … with 23 more rows
```
…
